%YAML 1.1
%TAG !u! tag:unity3d.com,2011:
--- !u!114 &11400000
MonoBehaviour:
  m_ObjectHideFlags: 0
  m_PrefabParentObject: {fileID: 0}
  m_PrefabInternal: {fileID: 0}
  m_GameObject: {fileID: 0}
  m_Enabled: 1
  m_EditorHideFlags: 0
  m_Script: {fileID: 0}
  m_Name: DropDodge
  m_EditorClassIdentifier: Assembly-CSharp::GCMoveObject
  _objectReferences: []
  _serializedStateKeys:
  - Move
  _serializedStateValues:
  - '{"UniqueId":13,"Name":"Drop Dodge","AnimationId":13,"Verticality":2,"BaseInitiative":0,"BaseDamage":0,"BaseAccuracy":0,"BaseDodge":50,"EnemyInitiative":0,"EnemyDamage":0,"EnemyAccuracy":0,"EnemyDodge":0,"PossibleAilments":[]}'
